…
``` r
data(instacart, package = "p8105.datasets")
```

This `instacart` dataset contains 1384617 observations and 15 variables, storing information related to orders placed on the instacart app. The dataset not only includes numeric variables, such as order ID and user ID, but also character variables like descriptive product names and department names, and a logical variable `reordered` stating whether the order was placed first time or not.

Taking `order_id` =1 placed by `user_id` = 112108 as an example, this specific order was consist of 8 items with their `product_id`, `product_name` and the order in which each item was added to the cart (`add_to_cart_order`) stated. If `reordered` =1, it means that the particular item was not the first time that customer purchased. `order_number` refers to the sequence number of this order that the user placed. In this order, the user purchased four of everything. `order_dow` = 4 and `order_hour_of_day` =12 means this order was placed on a Thursday on 12pm. It had been 30 days (`days_since_prior_order` = 30) since this user placed his/her last order on instacart. Information related to the location of each product in the supermarket is specified in `aisle_id`, `aisle`, `department_id` and `department`.

``` r
# The number of distinct aisles
distinct(instacart, aisle)
```

    ## # A tibble: 134 x 1
    ##    aisle                        
    ##    <chr>                        
    ##  1 yogurt                       
    ##  2 other creams cheeses         
    ##  3 fresh vegetables             
    ##  4 canned meat seafood          
    ##  5 fresh fruits                 
    ##  6 packaged cheese              
    ##  7 specialty cheeses            
    ##  8 water seltzer sparkling water
    ##  9 cream                        
    ## 10 packaged vegetables fruits   
    ## # ... with 124 more rows

``` r
# Frequency of each aisle
instacart %>% 
  group_by(aisle) %>% 
  summarize(n = n()) %>% 
  arrange(desc(n))
```

    ## # A tibble: 134 x 2
    ##    aisle                              n
    ##    <chr>                          <int>
    ##  1 fresh vegetables              150609
    ##  2 fresh fruits                  150473
    ##  3 packaged vegetables fruits     78493
    ##  4 yogurt                         55240
    ##  5 packaged cheese                41699
    ##  6 water seltzer sparkling water  36617
    ##  7 milk                           32644
    ##  8 chips pretzels                 31269
    ##  9 soy lactosefree                26240
    ## 10 bread                          23635
    ## # ... with 124 more rows
…
